%YAML 1.1
%TAG !u! tag:unity3d.com,2011:
--- !u!74 &7400000
AnimationClip:
  m_ObjectHideFlags: 0
  m_PrefabParentObject: {fileID: 0}
  m_PrefabInternal: {fileID: 0}
  m_Name: upanddwon
  serializedVersion: 3
  m_Compressed: 0
  m_RotationCurves: []
  m_CompressedRotationCurves: []
  m_PositionCurves:
  - curve:
      serializedVersion: 2
      m_Curve:
      - time: 0
        value: {x: -.0107229352, y: 3.83958006, z: 106.430931}
        inSlope: {x: 0, y: 1.97329044, z: 0}
        outSlope: {x: 0, y: 1.97329044, z: 0}
        tangentMode: -559038737
      - time: .166666672
        value: {x: -.0107229352, y: 4.1684618, z: 106.430931}
        inSlope: {x: 0, y: 1.44921684, z: 0}
        outSlope: {x: 0, y: 1.44921684, z: 0}
        tangentMode: -559038737
      - time: .333333343
        value: {x: -.0107229352, y: 4.32265234, z: 106.430931}
        inSlope: {x: 0, y: -.104879439, z: 0}
        outSlope: {x: 0, y: -.104879439, z: 0}
        tangentMode: -559038737
      - time: .5
        value: {x: -.0107229352, y: 4.13350201, z: 106.430931}
        inSlope: {x: 0, y: -1.18797255, z: 0}
        outSlope: {x: 0, y: -1.18797255, z: 0}
        tangentMode: -559038737
      - time: .666666687
        value: {x: -.0107229352, y: 3.92666149, z: 106.430931}
        inSlope: {x: 0, y: -.881765842, z: 0}
        outSlope: {x: 0, y: -.881765842, z: 0}
        tangentMode: -559038737
      - time: .833333433
        value: {x: -.0107229352, y: 3.83958006, z: 106.430931}
        inSlope: {x: 0, y: -.522488713, z: 0}
        outSlope: {x: 0, y: -.522488713, z: 0}
        tangentMode: -559038737
      m_PreInfinity: 2
      m_PostInfinity: 2
    path: 
  m_ScaleCurves: []
  m_FloatCurves:
  - curve:
      serializedVersion: 2
      m_Curve:
      - time: .349999964
        value: 0
        inSlope: 0
        outSlope: 0
        tangentMode: 10
      - time: .50000006
        value: 0
        inSlope: 0
        outSlope: 0
        tangentMode: 10
      m_PreInfinity: 2
      m_PostInfinity: 2
    attribute: _MainTex_ST.b
    path: 
    classID: 21
    script: {fileID: 0}
  - curve:
      serializedVersion: 2
      m_Curve:
      - time: .349999964
        value: 0
        inSlope: 0
        outSlope: 0
        tangentMode: 10
      - time: .50000006
        value: 0
        inSlope: 0
        outSlope: 0
        tangentMode: 10
      m_PreInfinity: 2
      m_PostInfinity: 2
    attribute: _MainTex.offset.x
    path: 
    classID: 21
    script: {fileID: 0}
  - curve:
      serializedVersion: 2
      m_Curve:
      - time: .349999964
        value: 0
        inSlope: 0
        outSlope: 0
        tangentMode: 10
      - time: .50000006
        value: 0
        inSlope: 0
        outSlope: 0
        tangentMode: 10
      m_PreInfinity: 2
      m_PostInfinity: 2
    attribute: _MainTex_ST.a
    path: 
    classID: 21
    script: {fileID: 0}
  - curve:
      serializedVersion: 2
      m_Curve:
      - time: 0
        value: 0
        inSlope: 0
        outSlope: 0
        tangentMode: 10
      - time: .183333367
        value: 0
        inSlope: 0
        outSlope: 0
        tangentMode: 10
      - time: .349999964
        value: 0
        inSlope: 0
        outSlope: 0
        tangentMode: 10
      - time: .50000006
        value: 0
        inSlope: 0
        outSlope: 0
        tangentMode: 10
      m_PreInfinity: 2
      m_PostInfinity: 2
    attribute: _MainTex.offset.y
    path: 
    classID: 21
    script: {fileID: 0}
  m_SampleRate: 60
  m_WrapMode: 2
  m_Bounds:
    m_Center: {x: 0, y: 0, z: 0}
    m_Extent: {x: 0, y: 0, z: 0}
  m_EditorCurves:
  - curve:
      serializedVersion: 2
      m_Curve:
      - time: 0
        value: -.0107229352
        inSlope: 0
        outSlope: 0
        tangentMode: 10
      - time: .166666672
        value: -.0107229352
        inSlope: 0
        outSlope: 0
        tangentMode: 10
      - time: .333333343
        value: -.0107229352
        inSlope: 0
        outSlope: 0
        tangentMode: 10
      - time: .5
        value: -.0107229352
        inSlope: 0
        outSlope: 0
        tangentMode: 10
      - time: .666666687
        value: -.0107229352
        inSlope: 0
        outSlope: 0
        tangentMode: 10
      - time: .833333433
        value: -.0107229352
        inSlope: 0
        outSlope: 0
        tangentMode: 10
      m_PreInfinity: 2
      m_PostInfinity: 2
    attribute: m_LocalPosition.x
    path: 
    classID: 4
    script: {fileID: 0}
  - curve:
      serializedVersion: 2
      m_Curve:
      - time: 0
        value: 3.83958006
        inSlope: 1.97329044
        outSlope: 1.97329044
        tangentMode: 10
      - time: .166666672
        value: 4.1684618
        inSlope: 1.44921684
        outSlope: 1.44921684
        tangentMode: 10
      - time: .333333343
        value: 4.32265234
        inSlope: -.104879439
        outSlope: -.104879439
        tangentMode: 10
      - time: .5
        value: 4.13350201
        inSlope: -1.18797255
        outSlope: -1.18797255
        tangentMode: 10
      - time: .666666687
        value: 3.92666149
        inSlope: -.881765842
        outSlope: -.881765842
        tangentMode: 10
      - time: .833333313
        value: 3.83958006
        inSlope: -.522488713
        outSlope: -.522488713
        tangentMode: 10
      m_PreInfinity: 2
      m_PostInfinity: 2
    attribute: m_LocalPosition.y
    path: 
    classID: 4
    script: {fileID: 0}
  - curve:
      serializedVersion: 2
      m_Curve:
      - time: 0
        value: 106.430931
        inSlope: 0
        outSlope: 0
        tangentMode: 10
      - time: .166666672
        value: 106.430931
        inSlope: 0
        outSlope: 0
        tangentMode: 10
      - time: .333333343
        value: 106.430931
        inSlope: 0
        outSlope: 0
        tangentMode: 10
      - time: .5
        value: 106.430931
        inSlope: 0
        outSlope: 0
        tangentMode: 10
      - time: .666666687
        value: 106.430931
        inSlope: 0
        outSlope: 0
        tangentMode: 10
      - time: .833333433
        value: 106.430931
        inSlope: 0
        outSlope: 0
        tangentMode: 10
      m_PreInfinity: 2
      m_PostInfinity: 2
    attribute: m_LocalPosition.z
    path: 
    classID: 4
    script: {fileID: 0}
  - curve:
      serializedVersion: 2
      m_Curve:
      - time: .349999964
        value: 0
        inSlope: 0
        outSlope: 0
        tangentMode: 10
      - time: .50000006
        value: 0
        inSlope: 0
        outSlope: 0
        tangentMode: 10
      m_PreInfinity: 2
      m_PostInfinity: 2
    attribute: _MainTex_ST.b
    path: 
    classID: 21
    script: {fileID: 0}
  - curve:
      serializedVersion: 2
      m_Curve:
      - time: .349999964
        value: 0
        inSlope: 0
        outSlope: 0
        tangentMode: 10
      - time: .50000006
        value: 0
        inSlope: 0
        outSlope: 0
        tangentMode: 10
      m_PreInfinity: 2
      m_PostInfinity: 2
    attribute: _MainTex.offset.x
    path: 
    classID: 21
    script: {fileID: 0}
  - curve:
      serializedVersion: 2
      m_Curve:
      - time: .349999964
        value: 0
        inSlope: 0
        outSlope: 0
        tangentMode: 10
      - time: .50000006
        value: 0
        inSlope: 0
        outSlope: 0
        tangentMode: 10
      m_PreInfinity: 2
      m_PostInfinity: 2
    attribute: _MainTex_ST.a
    path: 
    classID: 21
    script: {fileID: 0}
  - curve:
      serializedVersion: 2
      m_Curve:
      - time: 0
        value: 0
        inSlope: 0
        outSlope: 0
        tangentMode: 10
      - time: .183333367
        value: 0
        inSlope: 0
        outSlope: 0
        tangentMode: 10
      - time: .349999964
        value: 0
        inSlope: 0
        outSlope: 0
        tangentMode: 10
      - time: .50000006
        value: 0
        inSlope: 0
        outSlope: 0
        tangentMode: 10
      m_PreInfinity: 2
      m_PostInfinity: 2
    attribute: _MainTex.offset.y
    path: 
    classID: 21
    script: {fileID: 0}
  m_EulerEditorCurves: []
  m_Events: []
