%YAML 1.1
%TAG !u! tag:unity3d.com,2011:
--- !u!74 &7400000
AnimationClip:
  m_ObjectHideFlags: 0
  m_PrefabParentObject: {fileID: 0}
  m_PrefabInternal: {fileID: 0}
  m_Name: END_xuanzhuan
  serializedVersion: 3
  m_Compressed: 0
  m_RotationCurves:
  - curve:
      serializedVersion: 2
      m_Curve:
      - time: 0
        value: {x: .189233556, y: -.189233556, z: .681315362, w: -.681315362}
        inSlope: {x: -1.17197144, y: -1.16270983, z: .307556361, w: .340894431}
        outSlope: {x: -1.17197144, y: -1.16270983, z: .307556361, w: .340894431}
        tangentMode: -559038737
      - time: .25
        value: {x: -.110895775, y: -.455161542, z: .698356748, w: -.541135788}
        inSlope: {x: -1.19653857, y: -.927162409, z: -.190005809, w: .779857337}
        outSlope: {x: -1.19653857, y: -.927162409, z: -.190005809, w: .779857337}
        tangentMode: -559038737
      - time: .699999988
        value: {x: -.566237867, y: -.70354867, z: .423526406, w: -.0708465874}
        inSlope: {x: -.725654483, y: -.12138617, z: -.970171094, w: 1.20543504}
        outSlope: {x: -.725654483, y: -.12138617, z: -.970171094, w: 1.20543504}
        tangentMode: -559038737
      - time: 1.14999962
        value: {x: -.701238751, y: -.553912997, z: -.0909078419, w: .439522892}
        inSlope: {x: .155757815, y: .753064871, z: -1.20148015, w: .949056745}
        outSlope: {x: .155757815, y: .753064871, z: -1.20148015, w: .949056745}
        tangentMode: -559038737
      - time: 1.59999919
        value: {x: -.439523816, y: -.0909090862, z: -.553912282, w: .701238573}
        inSlope: {x: .949053168, y: 1.20147729, z: -.753064871, w: .155759603}
        outSlope: {x: .949053168, y: 1.20147729, z: -.753064871, w: .155759603}
        tangentMode: -559038737
      - time: 1.83333325
        value: {x: -.189233452, y: .189233571, z: -.681315422, w: .681315362}
        inSlope: {x: 1.1627214, y: 1.17198431, z: -.340900302, w: -.307556957}
        outSlope: {x: 1.1627214, y: 1.17198431, z: -.340900302, w: -.307556957}
        tangentMode: -559038737
      m_PreInfinity: 2
      m_PostInfinity: 2
    path: 
  m_CompressedRotationCurves: []
  m_PositionCurves: []
  m_ScaleCurves: []
  m_FloatCurves: []
  m_SampleRate: 60
  m_WrapMode: 2
  m_Bounds:
    m_Center: {x: 0, y: 0, z: 0}
    m_Extent: {x: 0, y: 0, z: 0}
  m_EditorCurves:
  - curve:
      serializedVersion: 2
      m_Curve:
      - time: 0
        value: .189233556
        inSlope: -1.17197144
        outSlope: -1.17197144
        tangentMode: 0
      - time: .25
        value: -.110895775
        inSlope: -1.19653857
        outSlope: -1.19653857
        tangentMode: 0
      - time: .699999988
        value: -.566237867
        inSlope: -.725654483
        outSlope: -.725654483
        tangentMode: 0
      - time: 1.14999962
        value: -.701238751
        inSlope: .155757815
        outSlope: .155757815
        tangentMode: 0
      - time: 1.59999919
        value: -.439523816
        inSlope: .949053168
        outSlope: .949053168
        tangentMode: 0
      - time: 1.83333325
        value: -.189233452
        inSlope: 1.1627214
        outSlope: 1.1627214
        tangentMode: 0
      m_PreInfinity: 2
      m_PostInfinity: 2
    attribute: m_LocalRotation.x
    path: 
    classID: 4
    script: {fileID: 0}
  - curve:
      serializedVersion: 2
      m_Curve:
      - time: 0
        value: -.189233556
        inSlope: -1.16270983
        outSlope: -1.16270983
        tangentMode: 0
      - time: .25
        value: -.455161542
        inSlope: -.927162409
        outSlope: -.927162409
        tangentMode: 0
      - time: .699999988
        value: -.70354867
        inSlope: -.12138617
        outSlope: -.12138617
        tangentMode: 0
      - time: 1.14999962
        value: -.553912997
        inSlope: .753064871
        outSlope: .753064871
        tangentMode: 0
      - time: 1.59999919
        value: -.0909090862
        inSlope: 1.20147729
        outSlope: 1.20147729
        tangentMode: 0
      - time: 1.83333325
        value: .189233571
        inSlope: 1.17198431
        outSlope: 1.17198431
        tangentMode: 0
      m_PreInfinity: 2
      m_PostInfinity: 2
    attribute: m_LocalRotation.y
    path: 
    classID: 4
    script: {fileID: 0}
  - curve:
      serializedVersion: 2
      m_Curve:
      - time: 0
        value: .681315362
        inSlope: .307556361
        outSlope: .307556361
        tangentMode: 0
      - time: .25
        value: .698356748
        inSlope: -.190005809
        outSlope: -.190005809
        tangentMode: 0
      - time: .699999988
        value: .423526406
        inSlope: -.970171094
        outSlope: -.970171094
        tangentMode: 0
      - time: 1.14999962
        value: -.0909078419
        inSlope: -1.20148015
        outSlope: -1.20148015
        tangentMode: 0
      - time: 1.59999919
        value: -.553912282
        inSlope: -.753064871
        outSlope: -.753064871
        tangentMode: 0
      - time: 1.83333325
        value: -.681315422
        inSlope: -.340900302
        outSlope: -.340900302
        tangentMode: 0
      m_PreInfinity: 2
      m_PostInfinity: 2
    attribute: m_LocalRotation.z
    path: 
    classID: 4
    script: {fileID: 0}
  - curve:
      serializedVersion: 2
      m_Curve:
      - time: 0
        value: -.681315362
        inSlope: .340894431
        outSlope: .340894431
        tangentMode: 0
      - time: .25
        value: -.541135788
        inSlope: .779857337
        outSlope: .779857337
        tangentMode: 0
      - time: .699999988
        value: -.0708465874
        inSlope: 1.20543504
        outSlope: 1.20543504
        tangentMode: 0
      - time: 1.14999962
        value: .439522892
        inSlope: .949056745
        outSlope: .949056745
        tangentMode: 0
      - time: 1.59999919
        value: .701238573
        inSlope: .155759603
        outSlope: .155759603
        tangentMode: 0
      - time: 1.83333325
        value: .681315362
        inSlope: -.307556957
        outSlope: -.307556957
        tangentMode: 0
      m_PreInfinity: 2
      m_PostInfinity: 2
    attribute: m_LocalRotation.w
    path: 
    classID: 4
    script: {fileID: 0}
  m_EulerEditorCurves:
  - curve:
      serializedVersion: 2
      m_Curve:
      - time: 0
        value: 0
        inSlope: 196.363647
        outSlope: 196.363647
        tangentMode: 10
      - time: 1.83333325
        value: 360
        inSlope: 196.363647
        outSlope: 196.363647
        tangentMode: 10
      m_PreInfinity: 2
      m_PostInfinity: 2
    attribute: localEulerAnglesBaked.x
    path: 
    classID: 4
    script: {fileID: 0}
  - curve:
      serializedVersion: 2
      m_Curve:
      - time: 0
        value: 31.0449848
        inSlope: -3.12111615e-06
        outSlope: -3.12111615e-06
        tangentMode: 10
      - time: 1.83333325
        value: 31.0449791
        inSlope: -3.12111615e-06
        outSlope: -3.12111615e-06
        tangentMode: 10
      m_PreInfinity: 2
      m_PostInfinity: 2
    attribute: localEulerAnglesBaked.y
    path: 
    classID: 4
    script: {fileID: 0}
  - curve:
      serializedVersion: 2
      m_Curve:
      - time: 0
        value: -90
        inSlope: 0
        outSlope: 0
        tangentMode: 10
      - time: 1.83333325
        value: -90
        inSlope: 0
        outSlope: 0
        tangentMode: 10
      m_PreInfinity: 2
      m_PostInfinity: 2
    attribute: localEulerAnglesBaked.z
    path: 
    classID: 4
    script: {fileID: 0}
  m_Events: []
