%YAML 1.1
%TAG !u! tag:unity3d.com,2011:
--- !u!21 &2100000
Material:
  serializedVersion: 3
  m_ObjectHideFlags: 0
  m_PrefabParentObject: {fileID: 0}
  m_PrefabInternal: {fileID: 0}
  m_Name: C01_ST1
  m_Shader: {fileID: 4800000, guid: 2d5a9d431205386448a1d2ceed7706c5, type: 1}
  m_SavedProperties:
    serializedVersion: 2
    m_TexEnvs:
      data:
        first:
          name: _MainTex
        second:
          m_Texture: {fileID: 2800000, guid: c301a30f9b58b9c4689924cfbc4b85ac, type: 1}
          m_Scale: {x: 1, y: 1}
          m_Offset: {x: 0, y: 0}
      data:
        first:
          name: _Illum
        second:
          m_Texture: {fileID: 0}
          m_Scale: {x: 1, y: 1}
          m_Offset: {x: 0, y: 0}
    m_Floats:
      data:
        first:
          name: _EmissionLM
        second: 0
      data:
        first:
          name: _TopLight
        second: -.50999999
      data:
        first:
          name: _RightLight
        second: 6.46000004
      data:
        first:
          name: _FrontLight
        second: 3.96000004
      data:
        first:
          name: _AOIntensity
        second: .398105592
      data:
        first:
          name: _AOPower
        second: 1
    m_Colors:
      data:
        first:
          name: _Color
        second: {r: .53638804, g: .4135665, b: .701492548, a: 1}
      data:
        first:
          name: _AOColor
        second: {r: .960475981, g: .948318064, b: .962686539, a: 1}
