%YAML 1.1
%TAG !u! tag:unity3d.com,2011:
--- !u!74 &7400000
AnimationClip:
  m_ObjectHideFlags: 0
  m_PrefabParentObject: {fileID: 0}
  m_PrefabInternal: {fileID: 0}
  m_Name: suofang
  serializedVersion: 3
  m_Compressed: 0
  m_RotationCurves: []
  m_CompressedRotationCurves: []
  m_PositionCurves: []
  m_ScaleCurves:
  - curve:
      serializedVersion: 2
      m_Curve:
      - time: -.0166666675
        value: {x: .0951195955, y: .0951195955, z: .0951195955}
        inSlope: {x: .0971147344, y: .0971147344, z: .0971147344}
        outSlope: {x: .0971147344, y: .0971147344, z: .0971147344}
        tangentMode: -559038737
      - time: .333333343
        value: {x: .129109755, y: .129109755, z: .129109755}
        inSlope: {x: -.00949019566, y: -.00949019566, z: -.00949019566}
        outSlope: {x: -.00949019566, y: -.00949019566, z: -.00949019566}
        tangentMode: -559038737
      - time: .666666687
        value: {x: .0904113799, y: .0904113799, z: .0904113799}
        inSlope: {x: .00433852151, y: .00433852151, z: .00433852151}
        outSlope: {x: .00433852151, y: .00433852151, z: .00433852151}
        tangentMode: -559038737
      - time: 1
        value: {x: .1320021, y: .1320021, z: .1320021}
        inSlope: {x: .00512010232, y: .00512010232, z: .00512010232}
        outSlope: {x: .00512010232, y: .00512010232, z: .00512010232}
        tangentMode: -559038737
      - time: 1.33333337
        value: {x: .093824774, y: .093824774, z: .093824774}
        inSlope: {x: -.114531964, y: -.114531964, z: -.114531964}
        outSlope: {x: -.114531964, y: -.114531964, z: -.114531964}
        tangentMode: -559038737
      m_PreInfinity: 2
      m_PostInfinity: 2
    path: 
  m_FloatCurves: []
  m_SampleRate: 60
  m_WrapMode: 2
  m_Bounds:
    m_Center: {x: 0, y: 0, z: 0}
    m_Extent: {x: 0, y: 0, z: 0}
  m_EditorCurves:
  - curve:
      serializedVersion: 2
      m_Curve:
      - time: -.0166666675
        value: .0951195955
        inSlope: .0971147344
        outSlope: .0971147344
        tangentMode: 10
      - time: .333333343
        value: .129109755
        inSlope: -.00949019566
        outSlope: -.00949019566
        tangentMode: 10
      - time: .666666687
        value: .0904113799
        inSlope: .00433852151
        outSlope: .00433852151
        tangentMode: 10
      - time: 1
        value: .1320021
        inSlope: .00512010232
        outSlope: .00512010232
        tangentMode: 10
      - time: 1.33333337
        value: .093824774
        inSlope: -.114531964
        outSlope: -.114531964
        tangentMode: 10
      m_PreInfinity: 2
      m_PostInfinity: 2
    attribute: m_LocalScale.x
    path: 
    classID: 4
    script: {fileID: 0}
  - curve:
      serializedVersion: 2
      m_Curve:
      - time: -.0166666675
        value: .0951195955
        inSlope: .0971147344
        outSlope: .0971147344
        tangentMode: 10
      - time: .333333343
        value: .129109755
        inSlope: -.00949019566
        outSlope: -.00949019566
        tangentMode: 10
      - time: .666666687
        value: .0904113799
        inSlope: .00433852151
        outSlope: .00433852151
        tangentMode: 10
      - time: 1
        value: .1320021
        inSlope: .00512010232
        outSlope: .00512010232
        tangentMode: 10
      - time: 1.33333337
        value: .093824774
        inSlope: -.114531964
        outSlope: -.114531964
        tangentMode: 10
      m_PreInfinity: 2
      m_PostInfinity: 2
    attribute: m_LocalScale.y
    path: 
    classID: 4
    script: {fileID: 0}
  - curve:
      serializedVersion: 2
      m_Curve:
      - time: -.0166666675
        value: .0951195955
        inSlope: .0971147344
        outSlope: .0971147344
        tangentMode: 10
      - time: .333333343
        value: .129109755
        inSlope: -.00949019566
        outSlope: -.00949019566
        tangentMode: 10
      - time: .666666687
        value: .0904113799
        inSlope: .00433852151
        outSlope: .00433852151
        tangentMode: 10
      - time: 1
        value: .1320021
        inSlope: .00512010232
        outSlope: .00512010232
        tangentMode: 10
      - time: 1.33333337
        value: .093824774
        inSlope: -.114531964
        outSlope: -.114531964
        tangentMode: 10
      m_PreInfinity: 2
      m_PostInfinity: 2
    attribute: m_LocalScale.z
    path: 
    classID: 4
    script: {fileID: 0}
  m_EulerEditorCurves: []
  m_Events: []
