%YAML 1.1
%TAG !u! tag:unity3d.com,2011:
--- !u!21 &2100000
Material:
  serializedVersion: 3
  m_ObjectHideFlags: 0
  m_PrefabParentObject: {fileID: 0}
  m_PrefabInternal: {fileID: 0}
  m_Name: C30_ST1
  m_Shader: {fileID: 4800000, guid: 2d5a9d431205386448a1d2ceed7706c5, type: 1}
  m_SavedProperties:
    serializedVersion: 2
    m_TexEnvs:
      data:
        first:
          name: _MainTex
        second:
          m_Texture: {fileID: 2800000, guid: 62ad2dbcc8881994b8b1c69439fb81c0, type: 1}
          m_Scale: {x: 1, y: 1}
          m_Offset: {x: 0, y: 0}
      data:
        first:
          name: _Illum
        second:
          m_Texture: {fileID: 0}
          m_Scale: {x: 1, y: 1}
          m_Offset: {x: 0, y: 0}
    m_Floats:
      data:
        first:
          name: _EmissionLM
        second: 0
      data:
        first:
          name: _TopLight
        second: .140000001
      data:
        first:
          name: _RightLight
        second: 2.20000005
      data:
        first:
          name: _FrontLight
        second: .0799999982
      data:
        first:
          name: _AOIntensity
        second: .686567187
      data:
        first:
          name: _AOPower
        second: 1
    m_Colors:
      data:
        first:
          name: _Color
        second: {r: .523167729, g: .552958548, b: .910447776, a: 1}
      data:
        first:
          name: _AOColor
        second: {r: 1, g: .970149279, b: .979542851, a: 1}
