%YAML 1.1
%TAG !u! tag:unity3d.com,2011:
--- !u!21 &2100000
Material:
  serializedVersion: 3
  m_ObjectHideFlags: 0
  m_PrefabParentObject: {fileID: 0}
  m_PrefabInternal: {fileID: 0}
  m_Name: floor_ST1
  m_Shader: {fileID: 4800000, guid: 2d5a9d431205386448a1d2ceed7706c5, type: 1}
  m_SavedProperties:
    serializedVersion: 2
    m_TexEnvs:
      data:
        first:
          name: _MainTex
        second:
          m_Texture: {fileID: 0}
          m_Scale: {x: 1, y: 1}
          m_Offset: {x: 0, y: 0}
      data:
        first:
          name: _Illum
        second:
          m_Texture: {fileID: 0}
          m_Scale: {x: 1, y: 1}
          m_Offset: {x: 0, y: 0}
    m_Floats:
      data:
        first:
          name: _EmissionLM
        second: -.810000002
      data:
        first:
          name: _TopLight
        second: .129999995
      data:
        first:
          name: _RightLight
        second: -.620000005
      data:
        first:
          name: _FrontLight
        second: .389999986
      data:
        first:
          name: _AOIntensity
        second: .76119405
      data:
        first:
          name: _AOPower
        second: 4.22388077
    m_Colors:
      data:
        first:
          name: _Color
        second: {r: .880596995, g: .850726008, b: .716306508, a: 1}
      data:
        first:
          name: _AOColor
        second: {r: .731343269, g: .327467114, b: .327467114, a: 1}
