%YAML 1.1
%TAG !u! tag:unity3d.com,2011:
--- !u!114 &11400000
MonoBehaviour:
  m_ObjectHideFlags: 0
  m_PrefabParentObject: {fileID: 0}
  m_PrefabInternal: {fileID: 0}
  m_GameObject: {fileID: 0}
  m_Enabled: 1
  m_EditorHideFlags: 0
  m_Script: {fileID: 11500000, guid: 5133fe8b41253c64388a4d1e76a24e62, type: 1}
  m_Name: LevelInfo
  Infos:
  - id: level_01
    name: Level 01
    locked: 0
    scene: scene_1
    coin_count: 10
  - id: level_02
    name: Level 02
    locked: 0
    scene: scene_2
    coin_count: 10
  - id: level_03
    name: Level 03
    locked: 0
    scene: scene_3
    coin_count: 10
  - id: level_04
    name: Level 04
    locked: 0
    scene: scene_4
    coin_count: 10
  - id: level_05
    name: Level 05
    locked: 0
    scene: scene_1
    coin_count: 10
  - id: level_06
    name: Level 06
    locked: 0
    scene: scene_2
    coin_count: 10
  - id: level_07
    name: Level 07
    locked: 0
    scene: scene_3
    coin_count: 10
  - id: level_08
    name: Level 08
    locked: 0
    scene: scene_4
    coin_count: 10
  - id: level_09
    name: Level 09
    locked: 0
    scene: scene_1
    coin_count: 10
  - id: level_10
    name: Level 10
    locked: 0
    scene: scene_2
    coin_count: 20
  - id: level_11
    name: Level 11
    locked: 1
    scene: scene_3
    coin_count: 20
  - id: level_12
    name: Level 12
    locked: 1
    scene: scene_4
    coin_count: 20
  - id: level_13
    name: Level 13
    locked: 1
    scene: scene_1
    coin_count: 20
  - id: level_14
    name: Level 14
    locked: 1
    scene: scene_2
    coin_count: 20
  - id: level_15
    name: Level 15
    locked: 1
    scene: scene_3
    coin_count: 20
  - id: level_16
    name: Level 16
    locked: 1
    scene: scene_4
    coin_count: 20
  - id: level_17
    name: Level 17
    locked: 1
    scene: scene_1
    coin_count: 20
  - id: level_18
    name: Level 18
    locked: 1
    scene: scene_2
    coin_count: 20
  - id: level_19
    name: Level 19
    locked: 1
    scene: scene_3
    coin_count: 20
  - id: level_20
    name: Level 20
    locked: 1
    scene: scene_4
    coin_count: 20
