%YAML 1.1
%TAG !u! tag:unity3d.com,2011:
--- !u!21 &2100000
Material:
  serializedVersion: 3
  m_ObjectHideFlags: 0
  m_PrefabParentObject: {fileID: 0}
  m_PrefabInternal: {fileID: 0}
  m_Name: AlphaGlowFrameTop
  m_Shader: {fileID: 4800000, guid: c803955ea59189b429397f9189224278, type: 1}
  m_SavedProperties:
    serializedVersion: 2
    m_TexEnvs:
      data:
        first:
          name: _MainTex
        second:
          m_Texture: {fileID: 2800000, guid: c8399a4ffb18d634e8263124141308cc, type: 1}
          m_Scale: {x: 1, y: 1}
          m_Offset: {x: 0, y: 0}
      data:
        first:
          name: _GlowTex
        second:
          m_Texture: {fileID: 2800000, guid: c8399a4ffb18d634e8263124141308cc, type: 1}
          m_Scale: {x: 1, y: 1}
          m_Offset: {x: 0, y: 0}
      data:
        first:
          name: _Illum
        second:
          m_Texture: {fileID: 0}
          m_Scale: {x: 1, y: 1}
          m_Offset: {x: 0, y: 0}
    m_Floats:
      data:
        first:
          name: _Shininess
        second: .699999988
      data:
        first:
          name: _EmissionLM
        second: 0
    m_Colors:
      data:
        first:
          name: _Color
        second: {r: .022388041, g: .0192136168, b: .0192136168, a: 1}
      data:
        first:
          name: _SpecColor
        second: {r: 1, g: 1, b: 1, a: 1}
      data:
        first:
          name: _GlowColor
        second: {r: 0, g: 1, b: 0, a: 1}
      data:
        first:
          name: _GlowColorMult
        second: {r: 0, g: 0, b: 0, a: 1}
      data:
        first:
          name: _MainColor
        second: {r: 0, g: 0, b: 0, a: 0}
