%YAML 1.1
%TAG !u! tag:unity3d.com,2011:
--- !u!21 &2100000
Material:
  serializedVersion: 3
  m_ObjectHideFlags: 0
  m_PrefabParentObject: {fileID: 0}
  m_PrefabInternal: {fileID: 0}
  m_Name: briage2
  m_Shader: {fileID: 4800000, guid: 59c87d7e7ff0dcb4596762d7f70ce430, type: 1}
  m_SavedProperties:
    serializedVersion: 2
    m_TexEnvs:
      data:
        first:
          name: _MainTex
        second:
          m_Texture: {fileID: 0}
          m_Scale: {x: 1, y: 1}
          m_Offset: {x: 0, y: 0}
    m_Floats:
      data:
        first:
          name: _AmbientPower
        second: 0
      data:
        first:
          name: _TopLight
        second: 2.03999996
      data:
        first:
          name: _RightLight
        second: 1.05999994
      data:
        first:
          name: _FrontLight
        second: 1.02999997
    m_Colors:
      data:
        first:
          name: _Color
        second: {r: 1, g: 1, b: 1, a: 1}
      data:
        first:
          name: _LightTint
        second: {r: 1, g: 1, b: 1, a: 0}
      data:
        first:
          name: _AmbientColor
        second: {r: 1, g: 1, b: 1, a: 0}
      data:
        first:
          name: _MainColor
        second: {r: .282352954, g: .650980413, b: .623529434, a: 0}
