%YAML 1.1
%TAG !u! tag:unity3d.com,2011:
--- !u!21 &2100000
Material:
  serializedVersion: 3
  m_ObjectHideFlags: 0
  m_PrefabParentObject: {fileID: 0}
  m_PrefabInternal: {fileID: 0}
  m_Name: moon2
  m_Shader: {fileID: 4800000, guid: cd9cc61598c005b438581be7fdee8a6b, type: 1}
  m_SavedProperties:
    serializedVersion: 2
    m_TexEnvs:
      data:
        first:
          name: _MainTex
        second:
          m_Texture: {fileID: 2800000, guid: f30e4af5fb1246641a1f92faabd57d2f, type: 1}
          m_Scale: {x: 1, y: 1}
          m_Offset: {x: 0, y: 0}
      data:
        first:
          name: _BumpMap
        second:
          m_Texture: {fileID: 0}
          m_Scale: {x: 1, y: 1}
          m_Offset: {x: 0, y: 0}
      data:
        first:
          name: _Illum
        second:
          m_Texture: {fileID: 0}
          m_Scale: {x: 1, y: 1}
          m_Offset: {x: 0, y: 0}
      data:
        first:
          name: _MKGlowTex
        second:
          m_Texture: {fileID: 0}
          m_Scale: {x: 1, y: 1}
          m_Offset: {x: 0, y: 0}
    m_Floats:
      data:
        first:
          name: _EmissionLM
        second: 0
      data:
        first:
          name: _MKGlowPower
        second: 2.5
      data:
        first:
          name: _MKGlowTexStrength
        second: 1
      data:
        first:
          name: _MKGlowOffSet
        second: .075000003
    m_Colors:
      data:
        first:
          name: _Color
        second: {r: .99253732, g: .987357616, b: .622187614, a: 1}
      data:
        first:
          name: _MKGlowColor
        second: {r: 1, g: 1, b: 1, a: 1}
      data:
        first:
          name: _MKGlowTexColor
        second: {r: 1, g: 1, b: 1, a: 1}
