%YAML 1.1
%TAG !u! tag:unity3d.com,2011:
--- !u!21 &2100000
Material:
  serializedVersion: 3
  m_ObjectHideFlags: 0
  m_PrefabParentObject: {fileID: 0}
  m_PrefabInternal: {fileID: 0}
  m_Name: B01_ST2
  m_Shader: {fileID: 4800000, guid: a30591e115593d24daaafd3987713f41, type: 1}
  m_SavedProperties:
    serializedVersion: 2
    m_TexEnvs:
      data:
        first:
          name: _MainTex
        second:
          m_Texture: {fileID: 2800000, guid: ac9445489374f5f4c9ba83699a9c5760, type: 1}
          m_Scale: {x: 1, y: 1}
          m_Offset: {x: 0, y: 0}
      data:
        first:
          name: _Illum
        second:
          m_Texture: {fileID: 0}
          m_Scale: {x: 1, y: 1}
          m_Offset: {x: 0, y: 0}
    m_Floats:
      data:
        first:
          name: _EmissionLM
        second: 0
    m_Colors:
      data:
        first:
          name: _Color
        second: {r: .602305651, g: .61840415, b: .768656731, a: 1}
