%YAML 1.1
%TAG !u! tag:unity3d.com,2011:
--- !u!21 &2100000
Material:
  serializedVersion: 3
  m_ObjectHideFlags: 0
  m_PrefabParentObject: {fileID: 0}
  m_PrefabInternal: {fileID: 0}
  m_Name: Style1_04
  m_Shader: {fileID: 4800000, guid: 2d5a9d431205386448a1d2ceed7706c5, type: 1}
  m_SavedProperties:
    serializedVersion: 2
    m_TexEnvs:
      data:
        first:
          name: _MainTex
        second:
          m_Texture: {fileID: 0}
          m_Scale: {x: 1, y: 1}
          m_Offset: {x: 0, y: 0}
      data:
        first:
          name: _Illum
        second:
          m_Texture: {fileID: 0}
          m_Scale: {x: 1, y: 1}
          m_Offset: {x: 0, y: 0}
    m_Floats:
      data:
        first:
          name: _EmissionLM
        second: 0
      data:
        first:
          name: _TopLight
        second: -.660000026
      data:
        first:
          name: _RightLight
        second: 0
      data:
        first:
          name: _FrontLight
        second: .560000002
      data:
        first:
          name: _AOIntensity
        second: 1
      data:
        first:
          name: _AOPower
        second: 1
    m_Colors:
      data:
        first:
          name: _Color
        second: {r: .952941179, g: .827450991, b: .282352954, a: 1}
      data:
        first:
          name: _AOColor
        second: {r: 0, g: 0, b: 0, a: 1}
